{
  "StorageConnectionString": "DefaultEndpointsProtocol=https;AccountName=snowmaker;AccountKey=FNm2lSJ72HNPIhPWjgN0kdGwF8zFKnNZk0ZgmsPUhKS0lOXLERrPE6wfsyVBWpXi0iIk4m5P+BNZR/FiDltB6w==;EndpointSuffix=core.windows.net"
}
